{
    "pipeline": {
        "roleArn": "arn:aws:iam::507521399828:role/code-pipeline-role", 
        "stages": [
            {
                "name": "Source", 
                "actions": [
                    {
                        "inputArtifacts": [], 
                        "name": "Source", 
                        "actionTypeId": {
                            "category": "Source", 
                            "owner": "ThirdParty", 
                            "version": "1", 
                            "provider": "GitHub"
                        }, 
                        "outputArtifacts": [
                            {
                                "name": "sources"
                            }
                        ], 
                        "configuration": {
                            "Owner": "arzttermine", 
                            "Repo": "payment-service",
                            "PollForSourceChanges": "true", 
                            "Branch": "master", 
                            "OAuthToken": "aa6704fe644da897313ebf5cc0711048be9deeda"
                        }, 
                        "runOrder": 1
                    }
                ]
            }, 
            {
                "name": "Build", 
                "actions": [
                    {
                        "inputArtifacts": [
                            {
                                "name": "sources"
                            }
                        ], 
                        "name": "CodeBuild", 
                        "actionTypeId": {
                            "category": "Build", 
                            "owner": "AWS", 
                            "version": "1", 
                            "provider": "CodeBuild"
                        }, 
                        "outputArtifacts": [
                            {
                                "name": "staging-dist"
                            }
                        ], 
                        "configuration": {
                            "ProjectName": "spring-services-build"
                        }, 
                        "runOrder": 1
                    }
                ]
            }, 
            {
                "name": "Staging", 
                "actions": [
                    {
                        "inputArtifacts": [
                            {
                                "name": "staging-dist"
                            }
                        ], 
                        "name": "Staging", 
                        "actionTypeId": {
                            "category": "Deploy", 
                            "owner": "AWS", 
                            "version": "1", 
                            "provider": "CodeDeploy"
                        }, 
                        "outputArtifacts": [], 
                        "configuration": {
                            "ApplicationName": "atcalendar", 
                            "DeploymentGroupName": "staging-payment-service"
                        }, 
                        "runOrder": 1
                    }
                ]
            }, 
            {
                "name": "Profile-Staging-Approval", 
                "actions": [
                    {
                        "inputArtifacts": [], 
                        "name": "Approval", 
                        "actionTypeId": {
                            "category": "Approval", 
                            "owner": "AWS", 
                            "version": "1", 
                            "provider": "Manual"
                        }, 
                        "outputArtifacts": [], 
                        "configuration": {
                            "NotificationArn": "arn:aws:sns:eu-central-1:507521399828:waiting-for-approval-queue", 
                            "ExternalEntityLink": "https://staging-atcalendar.arzttermine.de", 
                            "CustomData": "The payment service was deployed to staging. Approve to continue with production deployment"
                        }, 
                        "runOrder": 1
                    }
                ]
            },
            {
                "name": "Production", 
                "actions": [
                    {
                        "inputArtifacts": [
                            {
                                "name": "staging-dist"
                            }
                        ], 
                        "name": "Prod-Deploy", 
                        "actionTypeId": {
                            "category": "Deploy", 
                            "owner": "AWS", 
                            "version": "1", 
                            "provider": "CodeDeploy"
                        }, 
                        "outputArtifacts": [], 
                        "configuration": {
                            "ApplicationName": "atcalendar", 
                            "DeploymentGroupName": "production-payment-service"
                        }, 
                        "runOrder": 1
                    }
                ]
            }
        ], 
        "artifactStore": {
            "type": "S3", 
            "location": "codepipeline-eu-central-1-929655326138"
        }, 
        "name": "production-payment-service",
        "version": 1
    }
}
