<?xml version="1.0" encoding="utf-8"?>
<!-- Generator: Adobe Illustrator 16.0.3, SVG Export Plug-In . SVG Version: 6.00 Build 0)  -->
<!DOCTYPE svg PUBLIC "-//W3C//DTD SVG 1.1//EN" "http://www.w3.org/Graphics/SVG/1.1/DTD/svg11.dtd">
<svg version="1.1" id="Ebene_1" xmlns="http://www.w3.org/2000/svg" xmlns:xlink="http://www.w3.org/1999/xlink" x="0px" y="0px"
	 width="500px" height="500px" viewBox="0 0 500 500" enable-background="new 0 0 500 500" xml:space="preserve">
<g>
	<path fill="#595959" d="M341.086,250.001c0,50.301-40.781,91.084-91.086,91.084c-50.303,0-91.086-40.783-91.086-91.084
		s40.783-91.082,91.086-91.082C300.305,158.919,341.086,199.7,341.086,250.001z"/>
	<g>
		<path fill="#009FE3" d="M250,128.132c15.558,0,30.425,2.92,44.104,8.234h14.988h163.635
			C436.367,64.772,365.905,13.637,284.095,2.271L209.92,134.883C222.477,130.516,235.955,128.132,250,128.132z"/>
		<path fill="#009FE3" d="M171.913,156.439l11.047-20.073L259.096,0c-3.409,0-5.686,0-9.095,0
			C171.588,0,101.138,36.364,55.683,94.316l75.272,129.514C136.829,196.987,151.553,173.449,171.913,156.439z"/>
		<path fill="#009FE3" d="M129.61,269l-2.339-4.231L39.773,113.634C14.771,153.408,0,200,0,250.001
			c0,31.812,5.681,62.496,17.047,90.904H168.85C148.337,322.586,134.06,297.421,129.61,269z"/>
		<path fill="#009FE3" d="M250,371.871c-15.555,0-30.422-2.922-44.1-8.233h-24.085H27.275
			C62.5,431.812,128.411,482.953,207.957,496.589l73.823-128.918C271.646,370.406,260.998,371.871,250,371.871z"/>
		<path fill="#009FE3" d="M367.117,283.799c-8.223,28.538-26.591,52.762-50.935,68.549l-84.361,146.52
			C237.497,500,244.315,500,250.001,500c76.137,0,144.323-34.094,190.91-88.643L367.117,283.799z"/>
		<path fill="#009FE3" d="M482.955,159.093H331.152c24.429,21.82,40.007,53.337,40.691,88.509l83.837,144.443
			C484.087,351.132,500,302.271,500,250.001C500,218.184,494.316,187.501,482.955,159.093z"/>
	</g>
</g>
</svg>
