<svg id="svg" version="1.1" width="401" height="108" xmlns="http://www.w3.org/2000/svg" xmlns:xlink="http://www.w3.org/1999/xlink" style="display: block;">
    <g id="svgg">

        <path id="path0" d="M179.000 1.008 C 162.818 2.902,148.088 7.311,133.539 14.615 C 122.515 20.151,116.827 24.700,126.234 20.459 C 165.501 2.754,207.783 5.527,244.447 28.211 L 249.094 31.086 249.325 28.327 C 249.698 23.878,251.930 19.913,255.388 17.558 C 257.278 16.270,257.415 16.423,252.100 13.884 C 229.157 2.925,202.599 -1.753,179.000 1.008 M125.900 32.365 L 120.800 33.797 120.800 36.899 L 120.800 40.000 118.600 40.000 L 116.400 40.000 116.400 44.000 L 116.400 48.000 118.570 48.000 L 120.739 48.000 120.870 58.112 C 120.997 67.994,121.023 68.269,122.002 70.170 C 124.368 74.765,129.411 76.382,136.900 74.947 L 138.000 74.736 138.000 70.576 L 138.000 66.415 136.300 66.642 C 131.847 67.237,131.200 65.839,131.200 55.613 L 131.200 48.000 134.800 48.000 L 138.400 48.000 138.400 44.000 L 138.400 40.000 134.813 40.000 L 131.225 40.000 131.113 35.467 L 131.000 30.934 125.900 32.365 M152.348 40.226 C 138.638 44.448,137.107 67.857,150.151 73.829 C 154.704 75.914,167.769 75.673,170.268 73.458 C 170.377 73.361,168.913 66.379,168.748 66.215 C 168.666 66.133,167.609 66.329,166.399 66.651 C 160.453 68.235,154.544 67.125,152.501 64.041 C 150.579 61.141,150.390 61.200,161.553 61.200 L 171.507 61.200 171.748 60.300 C 172.607 57.095,171.621 49.994,169.825 46.449 C 166.955 40.786,159.338 38.074,152.348 40.226 M192.400 39.876 C 190.820 40.437,188.645 42.322,187.675 43.972 L 186.600 45.800 186.482 42.900 L 186.365 40.000 181.782 40.000 L 177.200 40.000 177.200 57.400 L 177.200 74.800 182.600 74.800 L 188.000 74.800 188.009 64.900 C 188.021 51.658,188.765 50.009,194.891 49.663 L 197.600 49.510 197.600 44.555 L 197.600 39.600 195.300 39.632 C 194.035 39.649,192.730 39.759,192.400 39.876 M216.706 39.998 C 215.066 40.492,212.960 41.894,211.817 43.253 L 210.800 44.461 210.800 43.481 C 210.800 42.941,210.688 41.938,210.550 41.250 L 210.300 40.000 205.700 40.000 L 201.100 40.000 201.350 41.250 C 201.488 41.938,201.600 49.767,201.600 58.650 L 201.600 74.800 206.800 74.800 L 212.000 74.800 212.000 63.787 C 212.000 50.656,212.480 48.881,216.219 48.196 C 220.221 47.462,220.799 49.367,220.799 63.300 L 220.800 74.800 226.200 74.800 L 231.600 74.800 231.600 63.259 C 231.600 51.898,231.614 51.697,232.515 50.359 C 234.978 46.700,238.965 47.695,240.017 52.231 C 240.217 53.094,240.385 58.525,240.390 64.300 L 240.400 74.800 245.629 74.800 L 250.859 74.800 250.720 61.900 C 250.567 47.733,250.360 46.392,247.806 43.044 C 244.278 38.418,235.965 38.344,231.308 42.896 C 230.378 43.806,229.555 44.471,229.479 44.375 C 229.403 44.279,228.948 43.630,228.468 42.934 C 226.580 40.198,220.819 38.760,216.706 39.998 M290.130 40.255 C 289.211 40.581,287.656 41.554,286.675 42.418 C 284.721 44.137,284.420 43.962,284.405 41.100 L 284.400 40.000 279.800 40.000 L 275.200 40.000 275.200 57.400 L 275.200 74.800 280.583 74.800 L 285.965 74.800 286.083 63.268 L 286.200 51.736 287.308 50.285 C 289.499 47.413,293.338 47.674,294.899 50.800 C 295.516 52.034,295.599 53.543,295.599 63.500 L 295.600 74.800 301.034 74.800 L 306.467 74.800 306.316 61.900 C 306.148 47.522,305.913 46.151,303.062 42.904 C 300.393 39.864,294.588 38.675,290.130 40.255 M321.957 40.520 C 308.577 46.155,307.645 67.920,320.530 73.819 C 324.778 75.764,332.472 75.926,338.300 74.193 C 340.708 73.477,340.703 73.494,339.789 69.149 C 339.051 65.639,339.426 65.952,336.799 66.651 C 329.758 68.527,323.227 66.677,322.018 62.464 L 321.656 61.200 331.799 61.200 L 341.942 61.200 342.230 58.900 C 343.174 51.358,339.918 43.628,334.649 40.902 C 331.627 39.337,325.222 39.145,321.957 40.520 M266.400 42.665 C 264.657 43.233,261.392 43.190,258.700 42.563 L 257.600 42.307 257.600 58.553 L 257.600 74.800 263.000 74.800 L 268.400 74.800 268.400 58.400 C 268.400 49.380,268.355 42.018,268.300 42.040 C 268.245 42.061,267.390 42.343,266.400 42.665 M159.251 47.427 C 160.580 48.114,161.977 50.700,161.991 52.500 L 162.000 53.600 156.632 53.600 L 151.264 53.600 151.671 52.100 C 152.839 47.793,156.087 45.790,159.251 47.427 M330.447 48.245 C 331.538 49.290,332.393 51.330,332.398 52.900 C 332.400 53.532,331.877 53.600,326.992 53.600 L 321.585 53.600 321.849 52.500 C 323.080 47.377,327.341 45.269,330.447 48.245 "
              stroke="none"
              fill="#444444"
              fill-rule="evenodd"></path>

        <path id="path1" d="M371.600 43.454 L 371.600 51.308 370.798 50.289 C 368.729 47.659,363.233 46.738,359.727 48.435 C 351.747 52.299,350.843 68.534,358.317 73.772 C 361.775 76.196,367.173 75.648,370.262 72.559 L 372.000 70.821 372.000 72.811 C 372.000 74.754,372.028 74.800,373.200 74.800 L 374.400 74.800 374.400 55.200 L 374.400 35.600 373.000 35.600 L 371.600 35.600 371.600 43.454 M386.197 48.325 C 377.362 52.453,377.349 70.139,386.178 74.251 C 389.430 75.765,398.414 75.202,398.395 73.485 C 398.374 71.626,397.969 71.254,396.592 71.829 C 389.435 74.820,383.720 71.261,382.576 63.100 L 382.309 61.200 390.967 61.200 C 400.940 61.200,400.256 61.533,399.624 56.989 C 398.555 49.304,392.485 45.388,386.197 48.325 M367.211 50.900 C 372.727 53.689,373.380 66.599,368.232 71.118 C 361.947 76.637,354.455 68.406,356.525 58.256 C 357.896 51.532,362.370 48.452,367.211 50.900 M392.513 50.548 C 394.899 51.565,396.800 54.714,396.800 57.650 L 396.800 58.800 389.800 58.800 C 381.990 58.800,382.251 58.914,383.268 55.960 C 384.903 51.210,388.763 48.951,392.513 50.548 M345.599 71.403 C 344.696 73.777,345.735 75.352,348.055 75.128 C 349.658 74.974,350.397 73.495,349.770 71.700 C 349.195 70.056,346.192 69.843,345.599 71.403 M287.000 85.978 C 285.606 86.549,284.712 87.910,284.501 89.784 C 284.339 91.218,284.139 91.600,283.548 91.600 C 283.017 91.600,282.800 91.890,282.800 92.600 C 282.800 93.333,283.013 93.600,283.600 93.600 C 284.360 93.600,284.400 93.867,284.400 99.000 L 284.400 104.400 285.600 104.400 L 286.800 104.400 286.800 99.000 L 286.800 93.600 288.200 93.600 C 289.427 93.600,289.600 93.476,289.600 92.600 C 289.600 91.724,289.427 91.600,288.200 91.600 C 287.010 91.600,286.800 91.463,286.800 90.689 C 286.800 89.244,287.899 88.000,289.176 88.000 C 290.055 88.000,290.348 87.784,290.492 87.031 C 290.742 85.724,288.945 85.182,287.000 85.978 M194.800 95.200 L 194.800 104.400 196.000 104.400 L 197.200 104.400 197.200 100.054 C 197.200 95.267,197.863 93.600,199.767 93.600 C 201.613 93.600,202.000 94.664,202.000 99.731 L 202.000 104.400 203.440 104.400 L 204.880 104.400 204.740 99.282 C 204.545 92.159,202.760 89.949,198.787 91.914 L 197.200 92.700 197.200 89.350 L 197.200 86.000 196.000 86.000 L 194.800 86.000 194.800 95.200 M232.400 95.200 L 232.400 104.400 233.600 104.400 L 234.800 104.400 234.800 95.200 L 234.800 86.000 233.600 86.000 L 232.400 86.000 232.400 95.200 M238.000 95.200 L 238.000 104.400 239.400 104.400 L 240.800 104.400 240.800 95.200 L 240.800 86.000 239.400 86.000 L 238.000 86.000 238.000 95.200 M312.800 95.200 L 312.800 104.400 314.000 104.400 L 315.200 104.400 315.200 100.054 C 315.200 95.267,315.863 93.600,317.767 93.600 C 319.613 93.600,320.000 94.664,320.000 99.731 L 320.000 104.400 321.400 104.400 L 322.800 104.400 322.798 100.100 C 322.795 94.978,322.338 93.040,320.911 92.105 C 319.572 91.228,317.014 91.283,315.988 92.211 C 315.210 92.915,315.200 92.881,315.200 89.462 L 315.200 86.000 314.000 86.000 L 312.800 86.000 312.800 95.200 M361.600 95.200 L 361.600 104.400 362.800 104.400 L 364.000 104.400 364.000 95.200 L 364.000 86.000 362.800 86.000 L 361.600 86.000 361.600 95.200 M265.695 87.265 C 264.806 88.154,265.097 89.559,266.229 89.843 C 267.535 90.171,268.098 89.610,267.931 88.149 C 267.786 86.881,266.563 86.397,265.695 87.265 M367.356 87.371 C 366.965 88.390,367.382 89.788,368.119 89.929 C 369.104 90.117,370.000 89.290,370.000 88.194 C 370.000 86.875,367.808 86.193,367.356 87.371 M177.350 91.477 C 173.302 92.265,173.886 96.880,178.337 99.281 C 180.369 100.377,179.822 102.400,177.494 102.400 C 176.863 102.400,176.004 102.216,175.584 101.991 C 174.616 101.473,173.906 103.442,174.846 104.037 C 176.114 104.840,179.984 104.452,181.018 103.418 C 183.244 101.193,182.215 98.371,178.422 96.302 C 176.338 95.165,176.822 93.792,179.297 93.825 C 181.184 93.850,182.283 92.872,181.340 92.008 C 180.891 91.597,178.422 91.268,177.350 91.477 M188.000 91.656 C 181.074 93.679,182.490 104.415,189.680 104.394 C 192.243 104.386,192.981 104.001,192.619 102.861 C 192.388 102.131,192.134 102.052,190.676 102.250 C 186.622 102.801,184.621 97.386,187.783 94.416 C 188.598 93.650,189.071 93.527,190.550 93.693 C 192.114 93.870,192.361 93.791,192.554 93.054 C 192.934 91.599,190.623 90.890,188.000 91.656 M211.500 91.937 C 210.324 92.546,210.000 92.594,210.000 92.157 C 210.000 91.805,209.559 91.600,208.800 91.600 L 207.600 91.600 207.600 98.000 L 207.600 104.400 209.000 104.400 L 210.400 104.400 210.400 99.800 C 210.400 94.747,210.877 93.600,212.977 93.600 C 214.742 93.600,215.200 94.896,215.200 99.889 L 215.200 104.400 216.431 104.400 L 217.662 104.400 217.531 99.008 C 217.359 91.927,215.570 89.829,211.500 91.937 M223.857 91.607 C 219.688 92.872,218.505 100.296,221.980 103.394 C 222.964 104.271,228.122 104.755,229.143 104.066 C 230.573 103.101,229.270 102.070,226.886 102.281 C 224.341 102.507,223.141 101.733,222.590 99.515 L 222.321 98.430 226.260 98.315 L 230.200 98.200 230.103 96.600 C 229.867 92.681,227.240 90.581,223.857 91.607 M256.200 91.938 C 252.120 93.857,251.709 101.788,255.587 103.793 C 257.982 105.032,262.400 104.514,262.400 102.995 C 262.400 102.119,262.293 102.086,260.100 102.284 C 257.414 102.527,256.226 101.841,255.622 99.700 L 255.256 98.400 259.228 98.400 L 263.200 98.400 263.200 96.987 C 263.200 92.707,259.792 90.249,256.200 91.938 M275.474 91.607 C 274.855 91.792,274.090 92.159,273.774 92.421 C 273.315 92.802,273.200 92.768,273.200 92.249 C 273.200 91.788,272.836 91.600,271.946 91.600 L 270.691 91.600 270.946 93.456 C 271.086 94.477,271.200 97.357,271.200 99.856 L 271.200 104.400 272.400 104.400 L 273.600 104.400 273.600 99.875 C 273.600 94.900,274.137 93.600,276.193 93.600 C 277.940 93.600,278.400 94.911,278.400 99.889 L 278.400 104.400 279.600 104.400 L 280.800 104.400 280.800 99.362 C 280.800 93.704,280.353 92.341,278.261 91.611 C 276.930 91.148,277.003 91.148,275.474 91.607 M292.863 91.598 C 291.133 92.007,290.805 92.394,291.235 93.518 C 291.535 94.300,291.709 94.370,292.419 93.990 C 293.754 93.276,295.654 93.386,296.260 94.214 C 297.185 95.480,296.871 95.919,294.705 96.383 C 291.217 97.131,289.508 99.185,290.172 101.831 C 290.771 104.219,294.151 105.290,296.311 103.777 C 297.116 103.214,297.200 103.214,297.200 103.777 C 297.200 104.200,297.578 104.400,298.375 104.400 L 299.551 104.400 299.321 99.300 C 299.051 93.323,298.644 92.216,296.499 91.621 C 294.824 91.156,294.737 91.155,292.863 91.598 M306.074 91.597 C 301.189 92.749,299.880 101.031,304.168 103.646 C 305.437 104.420,309.317 104.695,310.285 104.080 C 311.525 103.292,310.375 102.019,308.639 102.257 C 304.700 102.797,302.589 97.671,305.470 94.562 C 306.335 93.629,306.682 93.525,308.395 93.690 C 310.109 93.855,310.365 93.778,310.556 93.045 C 310.915 91.673,308.736 90.969,306.074 91.597 M339.057 91.599 C 335.762 92.622,334.124 97.451,335.752 101.346 C 337.480 105.482,343.766 105.563,345.623 101.473 C 348.141 95.927,344.201 90.001,339.057 91.599 M353.074 91.607 C 352.455 91.792,351.690 92.159,351.374 92.421 C 350.915 92.802,350.800 92.768,350.800 92.249 C 350.800 91.788,350.436 91.600,349.546 91.600 L 348.291 91.600 348.546 93.456 C 348.686 94.477,348.800 97.357,348.800 99.856 L 348.800 104.400 350.000 104.400 L 351.200 104.400 351.200 99.870 C 351.200 95.651,351.264 95.280,352.126 94.470 C 354.701 92.051,356.000 93.868,356.000 99.889 L 356.000 104.400 357.200 104.400 L 358.400 104.400 358.400 99.380 C 358.400 93.663,357.985 92.352,355.952 91.643 C 354.523 91.145,354.609 91.146,353.074 91.607 M376.700 91.937 C 375.524 92.546,375.200 92.594,375.200 92.157 C 375.200 91.805,374.759 91.600,374.000 91.600 L 372.800 91.600 372.800 98.000 L 372.800 104.400 374.200 104.400 L 375.600 104.400 375.600 99.800 C 375.600 94.631,376.136 93.422,378.315 93.676 C 379.948 93.866,380.387 95.223,380.394 100.100 L 380.400 104.400 381.631 104.400 L 382.862 104.400 382.731 99.008 C 382.559 91.927,380.770 89.829,376.700 91.937 M389.057 91.607 C 384.672 92.937,383.643 100.573,387.446 103.565 C 388.574 104.452,393.192 104.773,394.343 104.044 C 395.731 103.164,394.459 102.031,392.362 102.279 C 390.062 102.551,388.714 102.008,388.044 100.537 C 387.123 98.515,387.303 98.400,391.400 98.400 L 395.200 98.400 395.200 96.860 C 395.200 92.830,392.535 90.552,389.057 91.607 M265.600 98.000 L 265.600 104.400 266.800 104.400 L 268.000 104.400 268.000 98.000 L 268.000 91.600 266.800 91.600 L 265.600 91.600 265.600 98.000 M367.200 98.000 L 367.200 104.400 368.600 104.400 L 370.000 104.400 370.000 98.000 L 370.000 91.600 368.600 91.600 L 367.200 91.600 367.200 98.000 M226.546 94.029 C 228.506 95.571,227.978 96.400,225.037 96.400 C 222.164 96.400,221.806 95.640,223.903 93.990 C 225.151 93.009,225.251 93.010,226.546 94.029 M259.521 93.900 C 261.504 95.615,261.098 96.400,258.227 96.400 C 255.247 96.400,254.871 95.893,256.582 94.182 C 257.745 93.019,258.426 92.953,259.521 93.900 M342.810 94.703 C 343.884 96.069,343.881 99.334,342.804 101.100 C 340.739 104.487,336.868 101.043,337.828 96.672 C 338.570 93.294,340.958 92.350,342.810 94.703 M391.746 94.029 C 393.716 95.578,393.180 96.400,390.200 96.400 C 387.257 96.400,387.043 96.096,388.769 94.369 C 390.161 92.977,390.377 92.952,391.746 94.029 M296.800 99.538 C 296.800 101.424,295.759 102.516,294.139 102.330 C 292.224 102.110,292.346 99.179,294.299 98.465 C 296.413 97.693,296.800 97.859,296.800 99.538 M243.356 101.771 C 242.830 103.141,243.372 104.197,244.666 104.323 C 246.060 104.458,246.681 103.517,246.200 102.000 C 245.897 101.045,243.702 100.869,243.356 101.771 M325.621 101.775 C 324.658 102.936,325.434 104.467,326.914 104.324 C 328.093 104.210,328.200 104.084,328.200 102.800 C 328.200 101.215,326.610 100.583,325.621 101.775 M397.221 101.775 C 396.258 102.936,397.034 104.467,398.514 104.324 C 399.693 104.210,399.800 104.084,399.800 102.800 C 399.800 101.215,398.210 100.583,397.221 101.775 "
              stroke="none"
              fill="#868686"
              fill-rule="evenodd"></path>

        <path id="path2" d="M259.000 20.760 C 249.860 25.001,252.920 38.800,263.000 38.800 C 268.462 38.800,272.382 34.872,272.382 29.400 C 272.382 22.462,265.253 17.859,259.000 20.760 M100.703 32.398 L 95.606 33.800 95.603 36.900 L 95.600 40.000 93.400 40.000 L 91.200 40.000 91.200 44.000 L 91.200 48.000 93.359 48.000 L 95.518 48.000 95.694 57.700 C 95.983 73.663,99.073 77.101,111.300 75.067 L 113.200 74.751 113.200 70.604 L 113.200 66.458 111.078 66.677 C 106.780 67.120,106.045 65.381,106.017 54.700 L 106.000 48.000 109.800 48.000 L 113.600 48.000 113.600 44.000 L 113.600 40.000 109.813 40.000 L 106.025 40.000 105.913 35.498 L 105.800 30.997 100.703 32.398 M12.584 31.700 C 12.119 32.920,0.800 73.826,0.800 74.286 C 0.800 74.677,1.977 74.800,5.715 74.800 L 10.630 74.800 11.956 69.400 L 13.282 64.000 18.626 64.000 L 23.969 64.000 24.415 65.700 C 24.660 66.635,25.107 68.300,25.409 69.400 C 25.710 70.500,26.153 72.165,26.394 73.100 L 26.831 74.800 32.058 74.800 C 36.075 74.800,37.242 74.684,37.096 74.300 C 36.992 74.025,34.529 65.160,31.623 54.600 C 28.717 44.040,26.070 34.455,25.741 33.300 L 25.143 31.200 18.959 31.200 C 14.380 31.200,12.725 31.330,12.584 31.700 M20.828 49.545 C 21.692 53.146,22.400 56.251,22.400 56.445 C 22.400 56.640,20.690 56.800,18.600 56.800 C 16.193 56.800,14.800 56.645,14.800 56.377 C 14.800 56.144,15.327 53.849,15.970 51.277 C 16.614 48.704,17.460 44.980,17.851 43.000 L 18.562 39.400 18.909 41.200 C 19.099 42.190,19.963 45.945,20.828 49.545 M53.171 40.391 C 51.607 41.218,48.804 44.106,48.794 44.901 C 48.790 45.232,48.657 45.198,48.400 44.800 C 48.187 44.470,48.009 43.255,48.006 42.100 L 48.000 40.000 43.338 40.000 L 38.675 40.000 38.938 46.064 C 39.082 49.399,39.200 57.229,39.200 63.464 L 39.200 74.800 44.381 74.800 L 49.562 74.800 49.681 64.700 C 49.836 51.511,50.739 49.624,56.900 49.607 L 59.200 49.600 59.200 44.600 L 59.200 39.600 56.900 39.618 C 55.446 39.629,54.074 39.913,53.171 40.391 M62.000 44.400 L 62.000 48.800 68.849 48.800 L 75.697 48.800 73.900 50.904 C 72.911 52.061,69.649 56.409,66.651 60.566 L 61.200 68.124 61.200 71.462 L 61.200 74.800 75.000 74.800 L 88.800 74.800 88.800 70.600 L 88.800 66.400 81.368 66.400 L 73.935 66.400 75.790 64.100 C 76.811 62.835,80.065 58.438,83.023 54.329 L 88.400 46.858 88.400 43.429 L 88.400 40.000 75.200 40.000 L 62.000 40.000 62.000 44.400 "
              stroke="none"
              fill="#0090d6"
              fill-rule="evenodd"></path>

    </g>

</svg>