{
  "primaryBackground": "#fff",
  "primaryColor": "#111",
  "primaryFont": {
    "family": "Open Sans, sans-serif",
    "size": 1,
    "unit": "em"
  },
  "primaryButton": {
    "default": {
      "color": "#fff",
      "borderColor": "#025aa5",
      "backgroundColor": "#0275d8"
    },
    "active": {
      "backgroundColor": "#025aa5",
      "color": "#fff"
    },
    "outline": {
      "backgroundColor": "transparent",
      "borderColor": "#0275d8",
      "color": "#0275d8"
    }
  },
  "primarySelect": {
    "backgroundColor": "#fff",
    "color": "#464a4c",
    "font": "inherit"
  },
  "calendar": {
    "event": {
      "titleFont": {
        "family": "Open Sans, sans-serif",
        "size": 1,
        "unit": "em",
        "weight": "normal"
      }
    }
  },
  "headlineFont": {
    "family": "Open Sans, sans-serif",
    "size": 1.5,
    "unit": "em",
    "weight": "bold"
  },
  "menu": {
    "circle": {
      "backgroundColor": "#fff",
      "borderColor": "#d5d5da",
      "color": "#d5d5da"
    },
    "label": {
      "backgroundColor": "#fff",
      "color": "#025aa5"
    },
    "done": {
      "backgroundColor": "#0275d8",
      "borderColor": "#d5d5da",
      "color": "#fff"
    },
    "outer": {
      "color": "#d5d5da",
      "activeColor": "#0275d8"
    }
  },
  "alerts": {
    "info": {
      "backgroundColor": "#d9edf7",
      "borderColor": "#bcdff1",
      "color": "#31708f"
    },
    "warning": {
      "backgroundColor": "#fcf8e3",
      "borderColor": "#faf2cc",
      "color": "#8a6d3b"
    },
    "danger": {
      "backgroundColor": "#f2dede",
      "borderColor": "#ebcccc",
      "color": "#a94442"
    }
  },
  "divider": {
    "color": "#d5d5da"
  },
  "success": {
    "header": {
      "backgroundColor": "#0275d8",
      "color": "#eee"
    }
  },
  "fullscreen": {
    "backgroundColor": "rgba(213, 213, 218, .8)"
  },
  "spinner": {
    "backgroundColor": "#0275d8"
  }
}
