{
  "primaryBackground": "transparent",
  "primaryColor": "inherit",
  "primaryFont": {
    "family": "inherit",
    "size": "inherit",
    "unit": "inherit"
  },
  "primaryButton": {
    "default": {
      "color": "#fff",
      "borderColor": "rgb(25, 91, 150)",
      "backgroundColor": "#4ea4bb"
    },
    "active": {
      "backgroundColor": "rgb(25, 91, 150)",
      "color": "#fff"
    },
    "outline": {
      "backgroundColor": "transparent",
      "borderColor": "#4ea4bb",
      "color": "rgb(25, 91, 150)"
    }
  },
  "primarySelect": {
    "backgroundColor": "inherit",
    "color": "inherit",
    "font": "inherit"
  },
  "calendar": {
    "event": {
      "titleFont": {
        "family": "inherit",
        "size": 1.2,
        "unit": "em",
        "weight": "normal"
      }
    }
  },
  "headlineFont": {
    "family": "inherit",
    "size": 1.1,
    "unit": "em",
    "weight": "normal"
  },
  "menu": {
    "circle": {
      "backgroundColor": "#4ea4bb",
      "borderColor": "#333",
      "color": "#fff"
    },
    "label": {
      "backgroundColor": "inherit",
      "color": "inherit"
    },
    "done": {
      "backgroundColor": "rgb(25, 91, 150)",
      "borderColor": "#333",
      "color": "#fff"
    },
    "outer": {
      "color": "#333",
      "activeColor": "#4ea4bb"
    }
  },
  "alerts": {
    "info": {
      "backgroundColor": "#d9edf7",
      "borderColor": "#bcdff1",
      "color": "#31708f"
    },
    "warning": {
      "backgroundColor": "#fcf8e3",
      "borderColor": "#faf2cc",
      "color": "#8a6d3b"
    },
    "danger": {
      "backgroundColor": "#f2dede",
      "borderColor": "#ebcccc",
      "color": "#a94442"
    }
  },
  "divider": {
    "color": "#d5d5da"
  },
  "success": {
    "header": {
      "backgroundColor": "rgb(25, 91, 150)",
      "color": "#fff"
    }
  },
  "fullscreen": {
    "backgroundColor": "rgba(255, 255, 255, 0.85)"
  },
  "spinner": {
    "backgroundColor": "#1dcbf9"
  }
}
