{
  "primaryBackground": "inherit",
  "primaryColor": "#ABABAB",
  "primaryFont": {
    "family": "Arial, sans-serif",
    "size": 1,
    "unit": "em"
  },
  "primaryButton": {
    "default": {
      "color": "#fff",
      "borderColor": "#029EB4",
      "backgroundColor": "#0FB3CC"
    },
    "active": {
      "backgroundColor": "#029EB4",
      "color": "#fff"
    },
    "outline": {
      "backgroundColor": "transparent",
      "borderColor": "#0FB3CC",
      "color": "#0FB3CC"
    }
  },
  "primarySelect": {
    "backgroundColor": "#fff",
    "color": "#0FB3CC",
    "font": "inherit"
  },
  "calendar": {
    "event": {
      "titleFont": {
        "family": "Arial, sans-serif",
        "size": 1.2,
        "unit": "em",
        "weight": "normal"
      }
    }
  },
  "headlineFont": {
    "family": "Arial, sans-serif",
    "size": 1.2,
    "unit": "em",
    "weight": "normal"
  },
  "menu": {
    "circle": {
      "backgroundColor": "inherit",
      "borderColor": "inherit",
      "color": "inherit"
    },
    "label": {
      "backgroundColor": "inherit",
      "color": "inherit"
    },
    "done": {
      "backgroundColor": "#0FB3CC",
      "borderColor": "#0FB3CC",
      "color": "#fff"
    },
    "outer": {
      "color": "#0FB3CC",
      "activeColor": "#0FB3CC"
    }
  },
  "alerts": {
    "info": {
      "backgroundColor": "#7FD5E1",
      "borderColor": "#40C1D3",
      "color": "#40C1D3"
    },
    "warning": {
      "backgroundColor": "#FFDB8D",
      "borderColor": "#FFB30E",
      "color": "#8a6d3b"
    },
    "danger": {
      "backgroundColor": "#8a6d3b",
      "borderColor": "#ebcccc",
      "color": "#a94442"
    }
  },
  "divider": {
    "color": "#d5d5da"
  },
  "success": {
    "header": {
      "backgroundColor": "#0FB3CC",
      "color": "#eeee"
    }
  },
  "fullscreen": {
    "backgroundColor": "rgba(213, 213, 218, .8)"
  },
  "spinner": {
    "backgroundColor": "#0FB3CC"
  }
}
